<?xml version="1.0" encoding="utf-8"?>
<!-- Generator: Adobe Illustrator 16.0.0, SVG Export Plug-In . SVG Version: 6.00 Build 0)  -->
<!DOCTYPE svg PUBLIC "-//W3C//DTD SVG 1.1//EN" "http://www.w3.org/Graphics/SVG/1.1/DTD/svg11.dtd">
<svg version="1.1" id="Layer_1" xmlns="http://www.w3.org/2000/svg" xmlns:xlink="http://www.w3.org/1999/xlink" x="0px" y="0px"
	 width="99.295px" height="99.293px" viewBox="7.953 11.353 99.295 99.293" enable-background="new 7.953 11.353 99.295 99.293"
	 xml:space="preserve">
<g>
	<polygon fill="#009A1D" points="98,16.138 102.33,18.638 98,21.138 	"/>
	<polygon fill="#009A1D" points="92,16.138 96.33,18.638 92,21.138 	"/>
	<polygon fill="#009A1D" points="86,16.138 90.33,18.638 86,21.138 	"/>
	<polygon fill="#009A1D" points="81,16.138 85.33,18.638 81,21.138 	"/>
	<polygon fill="#009A1D" points="75,16.138 79.33,18.638 75,21.138 	"/>
	<rect x="8.195" y="11.353" fill="#009A1D" width="22.834" height="33.125"/>
	<g enable-background="new    ">
		<path fill="#FFFFFF" d="M17.731,24.517v-4.502c-0.144,0.152-0.536,0.384-0.735,0.456v-0.735c0.496-0.224,1.031-0.6,1.399-0.936
			h0.152v5.717H17.731z"/>
		<path fill="#FFFFFF" d="M19.828,24.517c0.384-0.536,0.8-1.295,1.16-1.982h-0.016c-0.12,0.063-0.264,0.104-0.432,0.104
			c-0.488,0-1.047-0.424-1.047-1.935c0-0.88,0.344-1.903,1.367-1.903c0.943,0,1.367,0.768,1.367,1.927
			c0,1.04-0.328,1.935-1.439,3.79H19.828z M21.411,20.743c0-0.512-0.12-1.248-0.576-1.248c-0.359,0-0.527,0.44-0.527,1.248
			c0,0.783,0.152,1.199,0.512,1.199C21.267,21.942,21.411,21.366,21.411,20.743z"/>
	</g>
	<g enable-background="new    ">
		<path fill="#FFFFFF" d="M14.797,32.497l1.184,3.926h0.016l1.184-3.926h0.879v5.885h-0.775v-3.918h-0.016L16.3,37.806h-0.624
			l-0.968-3.342h-0.016v3.918h-0.775v-5.885H14.797z"/>
		<path fill="#FFFFFF" d="M20.725,32.497l1.327,5.885h-0.855l-0.232-1.215h-1.287l-0.232,1.215H18.67l1.239-5.885H20.725z
			 M20.845,36.511l-0.512-2.687h-0.016l-0.512,2.687H20.845z"/>
		<path fill="#FFFFFF" d="M22.709,32.497h1.319c0.888,0,1.519,0.632,1.519,1.615c0,0.6-0.335,1.271-1.007,1.455l1.191,2.814h-0.936
			l-1.08-2.694h-0.191v2.694h-0.816V32.497z M23.525,34.991c0.799,0,1.167-0.247,1.167-0.935c0-0.488-0.312-0.864-0.887-0.864h-0.28
			V34.991z"/>
	</g>
	<g enable-background="new    ">
		<path d="M35.938,35.417h1.979c1.331,0,2.279,0.947,2.279,2.423c0,0.899-0.504,1.907-1.511,2.183l1.787,4.222h-1.403l-1.619-4.042
			h-0.288v4.042h-1.223V35.417z M37.161,39.159c1.199,0,1.751-0.372,1.751-1.403c0-0.731-0.468-1.296-1.331-1.296h-0.42V39.159z"/>
		<path d="M44.636,35.417v1.043h-1.991v2.579h1.991v1.043h-1.991v3.119h1.991v1.043h-3.214v-8.827H44.636z"/>
		<path d="M46.497,35.417l0.959,6.213h0.024l0.911-6.213h1.224l-1.583,8.827h-1.163l-1.655-8.827H46.497z"/>
		<path d="M50.686,35.417h1.223v8.827h-1.223V35.417z"/>
		<path d="M56.624,35.417v1.043h-1.991v2.579h1.991v1.043h-1.991v3.119h1.991v1.043H53.41v-8.827H56.624z"/>
		<path d="M64.314,35.417l-1.512,8.827h-1.164l-0.887-6.236h-0.023l-0.888,6.236h-1.164l-1.511-8.827h1.283l0.828,6.213h0.024
			l0.792-6.213h1.283l0.805,6.213h0.023l0.887-6.213H64.314z"/>
	</g>
	<g>
		<g>
			<path fill="#009A1D" d="M105.248,13.353v95.293H9.953V13.353H105.248 M107.248,11.353H7.953v99.293h99.295V11.353L107.248,11.353
				z"/>
		</g>
	</g>
	<rect x="15.719" y="55.465" fill="none" width="86.582" height="38.104"/>
	<g enable-background="new    ">
		<path fill="#1A1A1A" d="M17.188,57.92v0.521h-1.164V57.92H17.188z"/>
		<path fill="#1A1A1A" d="M19.96,55.467v3.862h0.983v0.552h-1.595v-4.414H19.96z"/>
		<path fill="#1A1A1A" d="M21.262,58.268c0-0.923,0.246-1.667,1.007-1.667c0.762,0,1.008,0.744,1.008,1.667
			c0,0.924-0.246,1.667-1.008,1.667C21.508,59.935,21.262,59.191,21.262,58.268z M22.666,58.112c0-0.588-0.09-1.02-0.396-1.02
			c-0.306,0-0.396,0.432-0.396,1.02c0,0.881,0.126,1.331,0.396,1.331C22.54,59.443,22.666,58.993,22.666,58.112z"/>
		<path fill="#1A1A1A" d="M23.812,56.654h0.552v0.588h0.012c0.06-0.294,0.258-0.611,0.696-0.642h0.006v0.672
			c-0.048-0.019-0.102-0.03-0.174-0.03c-0.222,0-0.51,0.156-0.51,0.756v1.883h-0.582V56.654z"/>
		<path fill="#1A1A1A" d="M25.997,58.328c0.006,0.575,0.036,1.115,0.414,1.115c0.27,0,0.354-0.33,0.366-0.57h0.521
			c-0.006,0.546-0.288,1.062-0.899,1.062c-0.678,0-0.983-0.468-0.983-1.751c0-1.098,0.372-1.583,0.996-1.583
			c0.575,0,0.941,0.456,0.941,1.266v0.462H25.997z M26.801,57.884c0-0.384-0.096-0.791-0.408-0.791
			c-0.318,0-0.396,0.407-0.396,0.791H26.801z"/>
		<path fill="#1A1A1A" d="M27.923,56.654h0.552v0.486h0.012c0.138-0.336,0.342-0.54,0.642-0.54c0.312,0,0.468,0.204,0.576,0.534
			h0.012c0.084-0.234,0.264-0.534,0.696-0.534c0.408,0,0.647,0.294,0.647,0.702v2.578h-0.582V57.62c0-0.246-0.078-0.468-0.312-0.468
			c-0.27,0-0.384,0.258-0.384,0.576v2.152h-0.582V57.62c0-0.246-0.078-0.468-0.312-0.468c-0.27,0-0.384,0.258-0.384,0.576v2.152
			h-0.582V56.654z"/>
		<path fill="#1A1A1A" d="M33.425,55.539c0.21,0,0.378,0.168,0.378,0.372c0,0.21-0.168,0.378-0.378,0.378
			c-0.204,0-0.372-0.168-0.372-0.378C33.053,55.707,33.221,55.539,33.425,55.539z M33.137,56.654h0.582v3.227h-0.582V56.654z"/>
		<path fill="#1A1A1A" d="M34.355,56.654h0.521v0.528h0.012c0.138-0.372,0.306-0.582,0.647-0.582c0.384,0,0.732,0.33,0.732,1.661
			c0,1.031-0.246,1.673-0.75,1.673c-0.317,0-0.492-0.21-0.6-0.581l-0.012-0.007v1.68h-0.552V56.654z M35.284,59.413
			c0.162,0,0.372-0.156,0.372-1.146s-0.21-1.146-0.372-1.146c-0.167,0-0.377,0.156-0.377,1.146S35.117,59.413,35.284,59.413z"/>
		<path fill="#1A1A1A" d="M37.139,58.993c0.006,0.229,0.15,0.45,0.396,0.45c0.216,0,0.33-0.168,0.33-0.324s-0.084-0.323-0.36-0.54
			l-0.306-0.239c-0.396-0.312-0.527-0.546-0.527-0.888c0-0.527,0.372-0.852,0.857-0.852c0.498,0,0.744,0.276,0.881,0.63l-0.498,0.3
			c-0.012-0.228-0.138-0.438-0.39-0.438c-0.186,0-0.3,0.119-0.3,0.294c0,0.138,0.06,0.251,0.359,0.479l0.366,0.281
			c0.377,0.294,0.498,0.588,0.498,0.906c0,0.474-0.33,0.881-0.923,0.881c-0.426,0-0.708-0.18-0.888-0.623L37.139,58.993z"/>
		<path fill="#1A1A1A" d="M40.72,59.881h-0.552v-0.438h-0.012c-0.144,0.359-0.354,0.491-0.642,0.491c-0.318,0-0.6-0.294-0.6-0.713
			v-2.567h0.582v2.333c0,0.252,0.12,0.396,0.282,0.396c0.234,0,0.36-0.222,0.36-0.455v-2.273h0.582V59.881z"/>
		<path fill="#1A1A1A" d="M41.357,56.654h0.552v0.486h0.012c0.138-0.336,0.342-0.54,0.642-0.54c0.312,0,0.468,0.204,0.576,0.534
			h0.012c0.084-0.234,0.264-0.534,0.696-0.534c0.408,0,0.647,0.294,0.647,0.702v2.578h-0.582V57.62c0-0.246-0.078-0.468-0.312-0.468
			c-0.27,0-0.384,0.258-0.384,0.576v2.152h-0.582V57.62c0-0.246-0.078-0.468-0.312-0.468c-0.27,0-0.384,0.258-0.384,0.576v2.152
			h-0.582V56.654z"/>
		<path fill="#1A1A1A" d="M47.83,59.347l-0.012,0.007c-0.108,0.371-0.282,0.581-0.6,0.581c-0.503,0-0.75-0.642-0.75-1.673
			c0-1.331,0.348-1.661,0.731-1.661c0.306,0,0.48,0.162,0.618,0.558h0.012v-1.691h0.552v4.414H47.83V59.347z M47.452,59.413
			c0.168,0,0.378-0.156,0.378-1.146s-0.21-1.146-0.378-1.146c-0.162,0-0.372,0.156-0.372,1.146S47.291,59.413,47.452,59.413z"/>
		<path fill="#1A1A1A" d="M48.917,58.268c0-0.923,0.246-1.667,1.007-1.667c0.762,0,1.008,0.744,1.008,1.667
			c0,0.924-0.246,1.667-1.008,1.667C49.163,59.935,48.917,59.191,48.917,58.268z M50.32,58.112c0-0.588-0.09-1.02-0.396-1.02
			c-0.306,0-0.396,0.432-0.396,1.02c0,0.881,0.126,1.331,0.396,1.331C50.194,59.443,50.32,58.993,50.32,58.112z"/>
		<path fill="#1A1A1A" d="M51.467,55.467h0.582v3.526c0,0.252,0.102,0.39,0.378,0.39h0.06v0.552h-0.216
			c-0.48,0-0.804-0.21-0.804-0.815V55.467z"/>
		<path fill="#1A1A1A" d="M52.697,58.268c0-0.923,0.246-1.667,1.007-1.667c0.762,0,1.008,0.744,1.008,1.667
			c0,0.924-0.246,1.667-1.008,1.667C52.943,59.935,52.697,59.191,52.697,58.268z M54.1,58.112c0-0.588-0.09-1.02-0.396-1.02
			c-0.306,0-0.396,0.432-0.396,1.02c0,0.881,0.126,1.331,0.396,1.331C53.974,59.443,54.1,58.993,54.1,58.112z"/>
		<path fill="#1A1A1A" d="M55.247,56.654h0.552v0.588h0.012c0.06-0.294,0.258-0.611,0.696-0.642h0.006v0.672
			c-0.048-0.019-0.102-0.03-0.174-0.03c-0.222,0-0.51,0.156-0.51,0.756v1.883h-0.582V56.654z"/>
		<path fill="#1A1A1A" d="M58.798,58.993c0.006,0.229,0.15,0.45,0.396,0.45c0.216,0,0.33-0.168,0.33-0.324s-0.084-0.323-0.36-0.54
			l-0.306-0.239c-0.396-0.312-0.527-0.546-0.527-0.888c0-0.527,0.372-0.852,0.857-0.852c0.498,0,0.744,0.276,0.881,0.63l-0.498,0.3
			c-0.012-0.228-0.138-0.438-0.39-0.438c-0.186,0-0.3,0.119-0.3,0.294c0,0.138,0.06,0.251,0.359,0.479l0.366,0.281
			c0.377,0.294,0.498,0.588,0.498,0.906c0,0.474-0.33,0.881-0.923,0.881c-0.426,0-0.708-0.18-0.888-0.623L58.798,58.993z"/>
		<path fill="#1A1A1A" d="M60.862,55.539c0.21,0,0.378,0.168,0.378,0.372c0,0.21-0.168,0.378-0.378,0.378
			c-0.204,0-0.372-0.168-0.372-0.378C60.491,55.707,60.658,55.539,60.862,55.539z M60.574,56.654h0.582v3.227h-0.582V56.654z"/>
		<path fill="#1A1A1A" d="M62.8,57.177h-0.312v1.9c0,0.162,0.09,0.252,0.24,0.252H62.8v0.521c-0.096,0.019-0.192,0.03-0.276,0.03
			c-0.371,0-0.617-0.174-0.617-0.582v-2.122h-0.312v-0.522h0.312v-0.803h0.582v0.803H62.8V57.177z"/>
		<path fill="#1A1A1A" d="M65.865,59.881v-0.474h-0.012c-0.168,0.378-0.371,0.527-0.672,0.527c-0.228,0-0.659-0.126-0.659-0.911
			c0-0.852,0.329-1.14,1.127-1.14h0.216V57.47c0-0.216-0.096-0.377-0.365-0.377c-0.234,0-0.342,0.126-0.372,0.407l-0.516-0.144
			c0.09-0.582,0.462-0.756,0.917-0.756c0.559,0,0.888,0.246,0.888,0.846v2.435H65.865z M65.416,59.443
			c0.18,0,0.449-0.21,0.449-0.689v-0.426h-0.149c-0.552,0-0.612,0.312-0.612,0.623C65.104,59.239,65.158,59.443,65.416,59.443z"/>
		<path fill="#1A1A1A" d="M67.012,56.654h0.553v0.486h0.012c0.138-0.336,0.342-0.54,0.641-0.54c0.312,0,0.469,0.204,0.576,0.534
			h0.012c0.084-0.234,0.264-0.534,0.696-0.534c0.407,0,0.647,0.294,0.647,0.702v2.578h-0.582V57.62c0-0.246-0.078-0.468-0.312-0.468
			c-0.271,0-0.384,0.258-0.384,0.576v2.152h-0.582V57.62c0-0.246-0.078-0.468-0.312-0.468c-0.27,0-0.384,0.258-0.384,0.576v2.152
			h-0.582V56.654z"/>
		<path fill="#1A1A1A" d="M71.302,58.328c0.006,0.575,0.036,1.115,0.414,1.115c0.27,0,0.354-0.33,0.366-0.57h0.521
			c-0.006,0.546-0.288,1.062-0.9,1.062c-0.678,0-0.982-0.468-0.982-1.751c0-1.098,0.371-1.583,0.995-1.583
			c0.575,0,0.941,0.456,0.941,1.266v0.462H71.302z M72.105,57.884c0-0.384-0.096-0.791-0.408-0.791
			c-0.317,0-0.396,0.407-0.396,0.791H72.105z"/>
		<path fill="#1A1A1A" d="M74.236,57.177h-0.312v1.9c0,0.162,0.09,0.252,0.24,0.252h0.072v0.521c-0.096,0.019-0.192,0.03-0.276,0.03
			c-0.372,0-0.618-0.174-0.618-0.582v-2.122h-0.311v-0.522h0.311v-0.803h0.582v0.803h0.312V57.177z"/>
		<path fill="#1A1A1A" d="M75.46,59.119l-0.528,1.277H74.44l0.378-1.277H75.46z"/>
		<path fill="#1A1A1A" d="M78.407,57.596c-0.007-0.312-0.072-0.474-0.265-0.474c-0.191,0-0.329,0.15-0.329,1.151
			c0,0.738,0.09,1.14,0.336,1.14c0.191,0,0.275-0.149,0.317-0.552l0.521,0.18c-0.084,0.588-0.329,0.894-0.839,0.894
			c-0.624,0-0.918-0.497-0.918-1.613c0-1.199,0.288-1.721,0.941-1.721c0.558,0,0.773,0.468,0.786,0.876L78.407,57.596z"/>
		<path fill="#1A1A1A" d="M79.343,58.268c0-0.923,0.246-1.667,1.008-1.667s1.007,0.744,1.007,1.667c0,0.924-0.245,1.667-1.007,1.667
			S79.343,59.191,79.343,58.268z M80.746,58.112c0-0.588-0.09-1.02-0.396-1.02s-0.396,0.432-0.396,1.02
			c0,0.881,0.126,1.331,0.396,1.331C80.62,59.443,80.746,58.993,80.746,58.112z"/>
		<path fill="#1A1A1A" d="M81.893,56.654h0.552v0.438h0.013c0.144-0.36,0.354-0.492,0.642-0.492c0.317,0,0.6,0.294,0.6,0.714v2.566
			h-0.582v-2.333c0-0.252-0.12-0.396-0.281-0.396c-0.234,0-0.36,0.222-0.36,0.456v2.272h-0.582V56.654z"/>
		<path fill="#1A1A1A" d="M84.67,58.993c0.006,0.229,0.15,0.45,0.396,0.45c0.216,0,0.329-0.168,0.329-0.324s-0.084-0.323-0.359-0.54
			L84.73,58.34c-0.396-0.312-0.528-0.546-0.528-0.888c0-0.527,0.372-0.852,0.857-0.852c0.498,0,0.744,0.276,0.882,0.63l-0.498,0.3
			c-0.012-0.228-0.138-0.438-0.39-0.438c-0.186,0-0.3,0.119-0.3,0.294c0,0.138,0.061,0.251,0.36,0.479l0.365,0.281
			c0.378,0.294,0.498,0.588,0.498,0.906c0,0.474-0.33,0.881-0.924,0.881c-0.426,0-0.707-0.18-0.887-0.623L84.67,58.993z"/>
		<path fill="#1A1A1A" d="M86.963,58.328c0.006,0.575,0.035,1.115,0.413,1.115c0.271,0,0.354-0.33,0.366-0.57h0.521
			c-0.006,0.546-0.288,1.062-0.899,1.062c-0.678,0-0.983-0.468-0.983-1.751c0-1.098,0.372-1.583,0.995-1.583
			c0.576,0,0.941,0.456,0.941,1.266v0.462H86.963z M87.766,57.884c0-0.384-0.096-0.791-0.407-0.791
			c-0.318,0-0.396,0.407-0.396,0.791H87.766z"/>
		<path fill="#1A1A1A" d="M89.963,57.596c-0.007-0.312-0.072-0.474-0.265-0.474c-0.191,0-0.329,0.15-0.329,1.151
			c0,0.738,0.09,1.14,0.336,1.14c0.191,0,0.275-0.149,0.317-0.552l0.521,0.18c-0.084,0.588-0.329,0.894-0.839,0.894
			c-0.624,0-0.918-0.497-0.918-1.613c0-1.199,0.288-1.721,0.941-1.721c0.558,0,0.773,0.468,0.786,0.876L89.963,57.596z"/>
		<path fill="#1A1A1A" d="M92.008,57.177h-0.312v1.9c0,0.162,0.09,0.252,0.239,0.252h0.072v0.521
			c-0.096,0.019-0.191,0.03-0.275,0.03c-0.372,0-0.618-0.174-0.618-0.582v-2.122h-0.312v-0.522h0.312v-0.803h0.582v0.803h0.312
			V57.177z"/>
		<path fill="#1A1A1A" d="M92.963,58.328c0.006,0.575,0.035,1.115,0.413,1.115c0.271,0,0.354-0.33,0.366-0.57h0.521
			c-0.006,0.546-0.288,1.062-0.899,1.062c-0.678,0-0.983-0.468-0.983-1.751c0-1.098,0.372-1.583,0.995-1.583
			c0.576,0,0.941,0.456,0.941,1.266v0.462H92.963z M93.766,57.884c0-0.384-0.096-0.791-0.407-0.791
			c-0.318,0-0.396,0.407-0.396,0.791H93.766z"/>
		<path fill="#1A1A1A" d="M95.896,57.177h-0.312v1.9c0,0.162,0.09,0.252,0.239,0.252h0.072v0.521
			c-0.096,0.019-0.191,0.03-0.275,0.03c-0.372,0-0.618-0.174-0.618-0.582v-2.122h-0.312v-0.522h0.312v-0.803h0.582v0.803h0.312
			V57.177z"/>
		<path fill="#1A1A1A" d="M98.14,59.881h-0.552v-0.438h-0.012c-0.145,0.359-0.354,0.491-0.642,0.491
			c-0.318,0-0.601-0.294-0.601-0.713v-2.567h0.582v2.333c0,0.252,0.12,0.396,0.282,0.396c0.233,0,0.359-0.222,0.359-0.455v-2.273
			h0.582V59.881z"/>
		<path fill="#1A1A1A" d="M98.776,56.654h0.552v0.588h0.013c0.06-0.294,0.258-0.611,0.695-0.642h0.006v0.672
			c-0.048-0.019-0.102-0.03-0.174-0.03c-0.222,0-0.51,0.156-0.51,0.756v1.883h-0.582V56.654z"/>
	</g>
	<g enable-background="new    ">
		<path fill="#1A1A1A" d="M17.188,64.92v0.521h-1.164V64.92H17.188z"/>
		<path fill="#1A1A1A" d="M20.44,66.881v-0.474h-0.012c-0.168,0.378-0.372,0.527-0.671,0.527c-0.228,0-0.66-0.126-0.66-0.911
			c0-0.852,0.33-1.14,1.127-1.14h0.216V64.47c0-0.216-0.096-0.377-0.366-0.377c-0.234,0-0.342,0.126-0.372,0.407l-0.516-0.144
			c0.09-0.582,0.461-0.756,0.917-0.756c0.558,0,0.887,0.246,0.887,0.846v2.435H20.44z M19.99,66.443c0.18,0,0.45-0.21,0.45-0.689
			v-0.426h-0.15c-0.552,0-0.612,0.312-0.612,0.623C19.678,66.239,19.732,66.443,19.99,66.443z"/>
		<path fill="#1A1A1A" d="M22.846,66.347l-0.012,0.007c-0.108,0.371-0.282,0.581-0.6,0.581c-0.503,0-0.75-0.642-0.75-1.673
			c0-1.331,0.348-1.661,0.731-1.661c0.306,0,0.48,0.162,0.618,0.558h0.012v-1.691h0.552v4.414h-0.552V66.347z M22.468,66.413
			c0.168,0,0.378-0.156,0.378-1.146s-0.21-1.146-0.378-1.146c-0.162,0-0.372,0.156-0.372,1.146S22.306,66.413,22.468,66.413z"/>
		<path fill="#1A1A1A" d="M24.322,62.539c0.21,0,0.378,0.168,0.378,0.372c0,0.21-0.168,0.378-0.378,0.378
			c-0.204,0-0.372-0.168-0.372-0.378C23.95,62.707,24.118,62.539,24.322,62.539z M24.034,63.654h0.582v3.227h-0.582V63.654z"/>
		<path fill="#1A1A1A" d="M25.252,63.654h0.521v0.528h0.012c0.138-0.372,0.306-0.582,0.647-0.582c0.384,0,0.732,0.33,0.732,1.661
			c0,1.031-0.246,1.673-0.75,1.673c-0.317,0-0.492-0.21-0.6-0.581l-0.012-0.007v1.68h-0.552V63.654z M26.182,66.413
			c0.162,0,0.372-0.156,0.372-1.146s-0.21-1.146-0.372-1.146c-0.167,0-0.377,0.156-0.377,1.146S26.014,66.413,26.182,66.413z"/>
		<path fill="#1A1A1A" d="M27.988,62.539c0.21,0,0.378,0.168,0.378,0.372c0,0.21-0.168,0.378-0.378,0.378
			c-0.204,0-0.372-0.168-0.372-0.378C27.616,62.707,27.784,62.539,27.988,62.539z M27.7,63.654h0.582v3.227H27.7V63.654z"/>
		<path fill="#1A1A1A" d="M29.254,65.993c0.006,0.229,0.15,0.45,0.396,0.45c0.216,0,0.33-0.168,0.33-0.324s-0.084-0.323-0.36-0.54
			l-0.306-0.239c-0.396-0.312-0.527-0.546-0.527-0.888c0-0.527,0.372-0.852,0.857-0.852c0.498,0,0.744,0.276,0.881,0.63l-0.498,0.3
			c-0.012-0.228-0.138-0.438-0.39-0.438c-0.186,0-0.3,0.119-0.3,0.294c0,0.138,0.06,0.251,0.359,0.479l0.366,0.281
			c0.377,0.294,0.498,0.588,0.498,0.906c0,0.474-0.33,0.881-0.923,0.881c-0.426,0-0.708-0.18-0.888-0.623L29.254,65.993z"/>
		<path fill="#1A1A1A" d="M31.318,62.539c0.21,0,0.378,0.168,0.378,0.372c0,0.21-0.168,0.378-0.378,0.378
			c-0.204,0-0.372-0.168-0.372-0.378C30.946,62.707,31.114,62.539,31.318,62.539z M31.03,63.654h0.582v3.227H31.03V63.654z"/>
		<path fill="#1A1A1A" d="M33.321,64.596c-0.006-0.312-0.072-0.474-0.264-0.474s-0.33,0.15-0.33,1.151c0,0.738,0.09,1.14,0.336,1.14
			c0.192,0,0.276-0.149,0.318-0.552l0.522,0.18c-0.084,0.588-0.33,0.894-0.84,0.894c-0.624,0-0.917-0.497-0.917-1.613
			c0-1.199,0.288-1.721,0.941-1.721c0.558,0,0.774,0.468,0.786,0.876L33.321,64.596z"/>
		<path fill="#1A1A1A" d="M34.647,62.539c0.21,0,0.378,0.168,0.378,0.372c0,0.21-0.168,0.378-0.378,0.378
			c-0.204,0-0.372-0.168-0.372-0.378C34.276,62.707,34.444,62.539,34.647,62.539z M34.36,63.654h0.582v3.227H34.36V63.654z"/>
		<path fill="#1A1A1A" d="M35.578,63.654h0.552v0.438h0.012c0.144-0.36,0.354-0.492,0.642-0.492c0.318,0,0.6,0.294,0.6,0.714v2.566
			h-0.582v-2.333c0-0.252-0.12-0.396-0.282-0.396c-0.234,0-0.36,0.222-0.36,0.456v2.272h-0.582V63.654z"/>
		<path fill="#1A1A1A" d="M39.831,63.654v3.425c0,0.552-0.33,0.983-0.983,0.983c-0.426,0-0.702-0.132-0.899-0.438l0.467-0.323
			c0.084,0.149,0.24,0.27,0.432,0.27c0.342,0,0.432-0.306,0.432-0.941v-0.275h-0.012c-0.108,0.371-0.282,0.581-0.6,0.581
			c-0.503,0-0.75-0.642-0.75-1.673c0-1.331,0.348-1.661,0.731-1.661c0.342,0,0.51,0.21,0.648,0.582h0.012v-0.528H39.831z
			 M38.901,64.122c-0.162,0-0.372,0.156-0.372,1.146s0.21,1.146,0.372,1.146c0.168,0,0.378-0.156,0.378-1.146
			S39.069,64.122,38.901,64.122z"/>
		<path fill="#1A1A1A" d="M42.423,65.328c0.006,0.575,0.036,1.115,0.414,1.115c0.27,0,0.354-0.33,0.366-0.57h0.521
			c-0.006,0.546-0.288,1.062-0.899,1.062c-0.678,0-0.983-0.468-0.983-1.751c0-1.098,0.372-1.583,0.995-1.583
			c0.576,0,0.942,0.456,0.942,1.266v0.462H42.423z M43.227,64.884c0-0.384-0.096-0.791-0.408-0.791
			c-0.318,0-0.396,0.407-0.396,0.791H43.227z"/>
		<path fill="#1A1A1A" d="M44.35,62.467h0.582v3.526c0,0.252,0.102,0.39,0.378,0.39h0.06v0.552h-0.216
			c-0.48,0-0.804-0.21-0.804-0.815V62.467z"/>
		<path fill="#1A1A1A" d="M45.969,62.539c0.21,0,0.378,0.168,0.378,0.372c0,0.21-0.168,0.378-0.378,0.378
			c-0.204,0-0.372-0.168-0.372-0.378C45.598,62.707,45.766,62.539,45.969,62.539z M45.682,63.654h0.582v3.227h-0.582V63.654z"/>
		<path fill="#1A1A1A" d="M47.907,64.177h-0.312v1.9c0,0.162,0.09,0.252,0.24,0.252h0.072v0.521c-0.096,0.019-0.192,0.03-0.276,0.03
			c-0.372,0-0.618-0.174-0.618-0.582v-2.122h-0.312v-0.522h0.312v-0.803h0.582v0.803h0.312V64.177z"/>
		<path fill="#1A1A1A" d="M49.131,66.119l-0.528,1.277h-0.492l0.378-1.277H49.131z"/>
		<path fill="#1A1A1A" d="M51.34,65.993c0.006,0.229,0.15,0.45,0.396,0.45c0.216,0,0.33-0.168,0.33-0.324s-0.084-0.323-0.36-0.54
			L51.4,65.34c-0.396-0.312-0.527-0.546-0.527-0.888c0-0.527,0.372-0.852,0.857-0.852c0.498,0,0.744,0.276,0.881,0.63l-0.498,0.3
			c-0.012-0.228-0.138-0.438-0.39-0.438c-0.186,0-0.3,0.119-0.3,0.294c0,0.138,0.06,0.251,0.359,0.479l0.366,0.281
			c0.377,0.294,0.498,0.588,0.498,0.906c0,0.474-0.33,0.881-0.923,0.881c-0.426,0-0.708-0.18-0.888-0.623L51.34,65.993z"/>
		<path fill="#1A1A1A" d="M53.632,65.328c0.006,0.575,0.036,1.115,0.414,1.115c0.27,0,0.354-0.33,0.366-0.57h0.521
			c-0.006,0.546-0.288,1.062-0.899,1.062c-0.678,0-0.983-0.468-0.983-1.751c0-1.098,0.372-1.583,0.996-1.583
			c0.575,0,0.941,0.456,0.941,1.266v0.462H53.632z M54.436,64.884c0-0.384-0.096-0.791-0.408-0.791
			c-0.318,0-0.396,0.407-0.396,0.791H54.436z"/>
		<path fill="#1A1A1A" d="M56.817,66.347l-0.012,0.007c-0.108,0.371-0.282,0.581-0.6,0.581c-0.503,0-0.75-0.642-0.75-1.673
			c0-1.331,0.348-1.661,0.731-1.661c0.306,0,0.48,0.162,0.618,0.558h0.012v-1.691h0.552v4.414h-0.552V66.347z M56.439,66.413
			c0.168,0,0.378-0.156,0.378-1.146s-0.21-1.146-0.378-1.146c-0.162,0-0.372,0.156-0.372,1.146S56.278,66.413,56.439,66.413z"/>
		<path fill="#1A1A1A" d="M60.705,66.347l-0.012,0.007c-0.107,0.371-0.282,0.581-0.6,0.581c-0.503,0-0.75-0.642-0.75-1.673
			c0-1.331,0.348-1.661,0.731-1.661c0.306,0,0.48,0.162,0.618,0.558h0.012v-1.691h0.553v4.414h-0.553V66.347z M60.328,66.413
			c0.168,0,0.377-0.156,0.377-1.146s-0.209-1.146-0.377-1.146c-0.162,0-0.372,0.156-0.372,1.146S60.166,66.413,60.328,66.413z"/>
		<path fill="#1A1A1A" d="M61.792,65.268c0-0.923,0.246-1.667,1.007-1.667c0.762,0,1.008,0.744,1.008,1.667
			c0,0.924-0.246,1.667-1.008,1.667C62.038,66.935,61.792,66.191,61.792,65.268z M63.195,65.112c0-0.588-0.09-1.02-0.396-1.02
			c-0.305,0-0.395,0.432-0.395,1.02c0,0.881,0.125,1.331,0.395,1.331C63.069,66.443,63.195,65.993,63.195,65.112z"/>
		<path fill="#1A1A1A" d="M66.297,65.328c0.006,0.575,0.037,1.115,0.414,1.115c0.27,0,0.354-0.33,0.366-0.57h0.521
			c-0.006,0.546-0.288,1.062-0.899,1.062c-0.678,0-0.983-0.468-0.983-1.751c0-1.098,0.372-1.583,0.995-1.583
			c0.576,0,0.941,0.456,0.941,1.266v0.462H66.297z M67.102,64.884c0-0.384-0.097-0.791-0.408-0.791
			c-0.318,0-0.396,0.407-0.396,0.791H67.102z"/>
		<path fill="#1A1A1A" d="M68.512,62.539c0.21,0,0.378,0.168,0.378,0.372c0,0.21-0.168,0.378-0.378,0.378
			c-0.203,0-0.371-0.168-0.371-0.378C68.141,62.707,68.309,62.539,68.512,62.539z M68.225,63.654h0.581v3.227h-0.581V63.654z"/>
		<path fill="#1A1A1A" d="M71.247,66.881h-0.552v-0.438h-0.012c-0.145,0.359-0.354,0.491-0.643,0.491c-0.317,0-0.6-0.294-0.6-0.713
			v-2.567h0.582v2.333c0,0.252,0.12,0.396,0.281,0.396c0.234,0,0.36-0.222,0.36-0.455v-2.273h0.582V66.881z"/>
		<path fill="#1A1A1A" d="M72.22,65.993c0.006,0.229,0.149,0.45,0.396,0.45c0.216,0,0.33-0.168,0.33-0.324s-0.084-0.323-0.359-0.54
			l-0.307-0.239c-0.396-0.312-0.527-0.546-0.527-0.888c0-0.527,0.371-0.852,0.857-0.852c0.498,0,0.744,0.276,0.881,0.63l-0.497,0.3
			c-0.013-0.228-0.138-0.438-0.39-0.438c-0.186,0-0.3,0.119-0.3,0.294c0,0.138,0.06,0.251,0.359,0.479l0.366,0.281
			c0.377,0.294,0.498,0.588,0.498,0.906c0,0.474-0.33,0.881-0.924,0.881c-0.426,0-0.708-0.18-0.888-0.623L72.22,65.993z"/>
		<path fill="#1A1A1A" d="M73.996,63.654h0.551v0.486h0.012c0.139-0.336,0.342-0.54,0.643-0.54c0.312,0,0.467,0.204,0.575,0.534
			h0.013c0.083-0.234,0.264-0.534,0.695-0.534c0.407,0,0.647,0.294,0.647,0.702v2.578H76.55V64.62c0-0.246-0.077-0.468-0.312-0.468
			c-0.27,0-0.384,0.258-0.384,0.576v2.152h-0.581V64.62c0-0.246-0.078-0.468-0.312-0.468c-0.27,0-0.384,0.258-0.384,0.576v2.152
			h-0.581V63.654z"/>
		<path fill="#1A1A1A" d="M77.668,65.268c0-0.923,0.246-1.667,1.008-1.667s1.007,0.744,1.007,1.667c0,0.924-0.245,1.667-1.007,1.667
			S77.668,66.191,77.668,65.268z M79.071,65.112c0-0.588-0.09-1.02-0.396-1.02s-0.396,0.432-0.396,1.02
			c0,0.881,0.126,1.331,0.396,1.331C78.945,66.443,79.071,65.993,79.071,65.112z"/>
		<path fill="#1A1A1A" d="M81.477,66.347l-0.012,0.007c-0.108,0.371-0.282,0.581-0.6,0.581c-0.504,0-0.75-0.642-0.75-1.673
			c0-1.331,0.348-1.661,0.731-1.661c0.306,0,0.479,0.162,0.618,0.558h0.012v-1.691h0.552v4.414h-0.552V66.347z M81.099,66.413
			c0.168,0,0.378-0.156,0.378-1.146s-0.21-1.146-0.378-1.146c-0.162,0-0.372,0.156-0.372,1.146S80.937,66.413,81.099,66.413z"/>
		<path fill="#1A1A1A" d="M85.113,64.177h-0.312v1.9c0,0.162,0.09,0.252,0.239,0.252h0.072v0.521
			c-0.096,0.019-0.191,0.03-0.275,0.03c-0.372,0-0.618-0.174-0.618-0.582v-2.122h-0.312v-0.522h0.312v-0.803h0.582v0.803h0.312
			V64.177z"/>
		<path fill="#1A1A1A" d="M86.067,65.328c0.006,0.575,0.035,1.115,0.413,1.115c0.271,0,0.354-0.33,0.366-0.57h0.521
			c-0.006,0.546-0.288,1.062-0.899,1.062c-0.678,0-0.983-0.468-0.983-1.751c0-1.098,0.372-1.583,0.995-1.583
			c0.576,0,0.941,0.456,0.941,1.266v0.462H86.067z M86.87,64.884c0-0.384-0.096-0.791-0.407-0.791c-0.318,0-0.396,0.407-0.396,0.791
			H86.87z"/>
		<path fill="#1A1A1A" d="M87.993,63.654h0.552v0.486h0.013c0.138-0.336,0.342-0.54,0.642-0.54c0.312,0,0.468,0.204,0.575,0.534
			h0.013c0.083-0.234,0.264-0.534,0.695-0.534c0.407,0,0.647,0.294,0.647,0.702v2.578h-0.582V64.62c0-0.246-0.077-0.468-0.312-0.468
			c-0.27,0-0.384,0.258-0.384,0.576v2.152h-0.582V64.62c0-0.246-0.077-0.468-0.312-0.468c-0.27,0-0.384,0.258-0.384,0.576v2.152
			h-0.582V63.654z"/>
		<path fill="#1A1A1A" d="M91.767,63.654h0.522v0.528h0.012c0.138-0.372,0.306-0.582,0.647-0.582c0.384,0,0.731,0.33,0.731,1.661
			c0,1.031-0.245,1.673-0.749,1.673c-0.318,0-0.492-0.21-0.6-0.581l-0.013-0.007v1.68h-0.552V63.654z M92.696,66.413
			c0.162,0,0.372-0.156,0.372-1.146s-0.21-1.146-0.372-1.146c-0.168,0-0.378,0.156-0.378,1.146S92.528,66.413,92.696,66.413z"/>
		<path fill="#1A1A1A" d="M94.113,65.268c0-0.923,0.246-1.667,1.008-1.667s1.007,0.744,1.007,1.667c0,0.924-0.245,1.667-1.007,1.667
			S94.113,66.191,94.113,65.268z M95.517,65.112c0-0.588-0.09-1.02-0.396-1.02s-0.396,0.432-0.396,1.02
			c0,0.881,0.126,1.331,0.396,1.331C95.391,66.443,95.517,65.993,95.517,65.112z"/>
		<path fill="#1A1A1A" d="M96.663,63.654h0.552v0.588h0.013c0.06-0.294,0.258-0.611,0.695-0.642h0.006v0.672
			c-0.048-0.019-0.102-0.03-0.174-0.03c-0.222,0-0.51,0.156-0.51,0.756v1.883h-0.582V63.654z"/>
	</g>
	<g enable-background="new    ">
		<path fill="#1A1A1A" d="M17.188,71.92v0.521h-1.164V71.92H17.188z"/>
		<path fill="#1A1A1A" d="M19.54,69.539c0.21,0,0.378,0.168,0.378,0.372c0,0.21-0.168,0.378-0.378,0.378
			c-0.204,0-0.372-0.168-0.372-0.378C19.168,69.707,19.336,69.539,19.54,69.539z M19.252,70.654h0.582v3.227h-0.582V70.654z"/>
		<path fill="#1A1A1A" d="M20.47,70.654h0.552v0.438h0.012c0.144-0.36,0.354-0.492,0.642-0.492c0.318,0,0.6,0.294,0.6,0.714v2.566
			h-0.582v-2.333c0-0.252-0.12-0.396-0.282-0.396c-0.234,0-0.36,0.222-0.36,0.456v2.272H20.47V70.654z"/>
		<path fill="#1A1A1A" d="M23.986,71.596c-0.006-0.312-0.072-0.474-0.264-0.474s-0.33,0.15-0.33,1.151c0,0.738,0.09,1.14,0.336,1.14
			c0.192,0,0.276-0.149,0.318-0.552l0.522,0.18c-0.084,0.588-0.33,0.894-0.84,0.894c-0.624,0-0.917-0.497-0.917-1.613
			c0-1.199,0.288-1.721,0.941-1.721c0.558,0,0.774,0.468,0.786,0.876L23.986,71.596z"/>
		<path fill="#1A1A1A" d="M25.312,69.539c0.21,0,0.378,0.168,0.378,0.372c0,0.21-0.168,0.378-0.378,0.378
			c-0.204,0-0.372-0.168-0.372-0.378C24.94,69.707,25.108,69.539,25.312,69.539z M25.024,70.654h0.582v3.227h-0.582V70.654z"/>
		<path fill="#1A1A1A" d="M27.501,73.347l-0.012,0.007c-0.108,0.371-0.282,0.581-0.6,0.581c-0.503,0-0.75-0.642-0.75-1.673
			c0-1.331,0.348-1.661,0.731-1.661c0.306,0,0.48,0.162,0.618,0.558h0.012v-1.691h0.552v4.414h-0.552V73.347z M27.124,73.413
			c0.168,0,0.378-0.156,0.378-1.146s-0.21-1.146-0.378-1.146c-0.162,0-0.372,0.156-0.372,1.146S26.962,73.413,27.124,73.413z"/>
		<path fill="#1A1A1A" d="M28.978,69.539c0.21,0,0.378,0.168,0.378,0.372c0,0.21-0.168,0.378-0.378,0.378
			c-0.204,0-0.372-0.168-0.372-0.378C28.606,69.707,28.774,69.539,28.978,69.539z M28.69,70.654h0.582v3.227H28.69V70.654z"/>
		<path fill="#1A1A1A" d="M31.167,73.347l-0.012,0.007c-0.108,0.371-0.282,0.581-0.6,0.581c-0.503,0-0.75-0.642-0.75-1.673
			c0-1.331,0.348-1.661,0.731-1.661c0.306,0,0.48,0.162,0.618,0.558h0.012v-1.691h0.552v4.414h-0.552V73.347z M30.79,73.413
			c0.168,0,0.378-0.156,0.378-1.146s-0.21-1.146-0.378-1.146c-0.162,0-0.372,0.156-0.372,1.146S30.628,73.413,30.79,73.413z"/>
		<path fill="#1A1A1A" d="M34.161,73.881h-0.552v-0.438h-0.012c-0.144,0.359-0.354,0.491-0.642,0.491c-0.318,0-0.6-0.294-0.6-0.713
			v-2.567h0.582v2.333c0,0.252,0.12,0.396,0.282,0.396c0.234,0,0.36-0.222,0.36-0.455v-2.273h0.582V73.881z"/>
		<path fill="#1A1A1A" d="M34.798,70.654h0.552v0.438h0.012c0.144-0.36,0.354-0.492,0.642-0.492c0.318,0,0.6,0.294,0.6,0.714v2.566
			h-0.582v-2.333c0-0.252-0.12-0.396-0.282-0.396c-0.234,0-0.36,0.222-0.36,0.456v2.272h-0.582V70.654z"/>
		<path fill="#1A1A1A" d="M38.248,71.177h-0.312v1.9c0,0.162,0.09,0.252,0.24,0.252h0.072v0.521c-0.096,0.019-0.192,0.03-0.276,0.03
			c-0.372,0-0.618-0.174-0.618-0.582v-2.122h-0.312v-0.522h0.312v-0.803h0.582v0.803h0.312V71.177z"/>
		<path fill="#1A1A1A" d="M41.931,73.881h-0.552v-0.438h-0.012c-0.144,0.359-0.354,0.491-0.642,0.491c-0.318,0-0.6-0.294-0.6-0.713
			v-2.567h0.582v2.333c0,0.252,0.12,0.396,0.282,0.396c0.234,0,0.36-0.222,0.36-0.455v-2.273h0.582V73.881z"/>
		<path fill="#1A1A1A" d="M43.575,71.177h-0.312v1.9c0,0.162,0.09,0.252,0.24,0.252h0.072v0.521c-0.096,0.019-0.192,0.03-0.276,0.03
			c-0.372,0-0.618-0.174-0.618-0.582v-2.122H42.37v-0.522h0.312v-0.803h0.582v0.803h0.312V71.177z"/>
		<path fill="#1A1A1A" d="M45.454,69.467h0.582v3.526c0,0.252,0.102,0.39,0.378,0.39h0.06v0.552h-0.216
			c-0.48,0-0.804-0.21-0.804-0.815V69.467z"/>
		<path fill="#1A1A1A" d="M47.973,73.881v-0.474h-0.012c-0.168,0.378-0.372,0.527-0.671,0.527c-0.228,0-0.66-0.126-0.66-0.911
			c0-0.852,0.33-1.14,1.127-1.14h0.216V71.47c0-0.216-0.096-0.377-0.366-0.377c-0.234,0-0.342,0.126-0.372,0.407l-0.516-0.144
			c0.09-0.582,0.461-0.756,0.917-0.756c0.558,0,0.887,0.246,0.887,0.846v2.435H47.973z M47.523,73.443c0.18,0,0.45-0.21,0.45-0.689
			v-0.426h-0.15c-0.552,0-0.612,0.312-0.612,0.623C47.211,73.239,47.265,73.443,47.523,73.443z"/>
		<path fill="#1A1A1A" d="M49.12,69.467h0.552v1.691h0.012c0.138-0.396,0.312-0.558,0.618-0.558c0.384,0,0.732,0.33,0.732,1.661
			c0,1.031-0.246,1.673-0.75,1.673c-0.317,0-0.492-0.21-0.6-0.581l-0.012-0.007v0.534H49.12V69.467z M50.049,73.413
			c0.162,0,0.372-0.156,0.372-1.146s-0.21-1.146-0.372-1.146c-0.167,0-0.377,0.156-0.377,1.146S49.881,73.413,50.049,73.413z"/>
		<path fill="#1A1A1A" d="M51.466,72.268c0-0.923,0.246-1.667,1.007-1.667c0.762,0,1.008,0.744,1.008,1.667
			c0,0.924-0.246,1.667-1.008,1.667C51.712,73.935,51.466,73.191,51.466,72.268z M52.869,72.112c0-0.588-0.09-1.02-0.396-1.02
			c-0.306,0-0.396,0.432-0.396,1.02c0,0.881,0.126,1.331,0.396,1.331C52.743,73.443,52.869,72.993,52.869,72.112z"/>
		<path fill="#1A1A1A" d="M54.016,70.654h0.552v0.588h0.012c0.06-0.294,0.258-0.611,0.696-0.642h0.006v0.672
			c-0.048-0.019-0.102-0.03-0.174-0.03c-0.222,0-0.51,0.156-0.51,0.756v1.883h-0.582V70.654z"/>
		<path fill="#1A1A1A" d="M56.2,72.328c0.006,0.575,0.036,1.115,0.414,1.115c0.27,0,0.354-0.33,0.366-0.57h0.521
			c-0.006,0.546-0.288,1.062-0.899,1.062c-0.678,0-0.983-0.468-0.983-1.751c0-1.098,0.372-1.583,0.996-1.583
			c0.575,0,0.941,0.456,0.941,1.266v0.462H56.2z M57.004,71.884c0-0.384-0.096-0.791-0.408-0.791c-0.318,0-0.396,0.407-0.396,0.791
			H57.004z"/>
		<path fill="#1A1A1A" d="M60.082,72.328c0.006,0.575,0.036,1.115,0.414,1.115c0.27,0,0.354-0.33,0.365-0.57h0.521
			c-0.006,0.546-0.287,1.062-0.899,1.062c-0.678,0-0.983-0.468-0.983-1.751c0-1.098,0.372-1.583,0.996-1.583
			c0.575,0,0.941,0.456,0.941,1.266v0.462H60.082z M60.886,71.884c0-0.384-0.097-0.791-0.408-0.791
			c-0.318,0-0.396,0.407-0.396,0.791H60.886z"/>
		<path fill="#1A1A1A" d="M63.016,71.177h-0.312v1.9c0,0.162,0.09,0.252,0.239,0.252h0.072v0.521
			c-0.096,0.019-0.191,0.03-0.275,0.03c-0.372,0-0.618-0.174-0.618-0.582v-2.122h-0.312v-0.522h0.312v-0.803h0.582v0.803h0.312
			V71.177z"/>
		<path fill="#1A1A1A" d="M66.154,73.347l-0.013,0.007c-0.108,0.371-0.282,0.581-0.6,0.581c-0.503,0-0.749-0.642-0.749-1.673
			c0-1.331,0.348-1.661,0.73-1.661c0.307,0,0.48,0.162,0.618,0.558h0.013v-1.691h0.551v4.414h-0.551V73.347z M65.775,73.413
			c0.168,0,0.379-0.156,0.379-1.146s-0.211-1.146-0.379-1.146c-0.161,0-0.371,0.156-0.371,1.146S65.614,73.413,65.775,73.413z"/>
		<path fill="#1A1A1A" d="M67.24,72.268c0-0.923,0.246-1.667,1.008-1.667s1.008,0.744,1.008,1.667c0,0.924-0.246,1.667-1.008,1.667
			S67.24,73.191,67.24,72.268z M68.644,72.112c0-0.588-0.09-1.02-0.396-1.02c-0.307,0-0.396,0.432-0.396,1.02
			c0,0.881,0.127,1.331,0.396,1.331S68.644,72.993,68.644,72.112z"/>
		<path fill="#1A1A1A" d="M69.791,69.467h0.581v3.526c0,0.252,0.103,0.39,0.378,0.39h0.061v0.552h-0.217
			c-0.479,0-0.803-0.21-0.803-0.815V69.467z"/>
		<path fill="#1A1A1A" d="M71.02,72.268c0-0.923,0.246-1.667,1.008-1.667s1.008,0.744,1.008,1.667c0,0.924-0.246,1.667-1.008,1.667
			S71.02,73.191,71.02,72.268z M72.424,72.112c0-0.588-0.09-1.02-0.396-1.02c-0.306,0-0.396,0.432-0.396,1.02
			c0,0.881,0.126,1.331,0.396,1.331S72.424,72.993,72.424,72.112z"/>
		<path fill="#1A1A1A" d="M73.57,70.654h0.552v0.588h0.012c0.06-0.294,0.258-0.611,0.696-0.642h0.006v0.672
			c-0.049-0.019-0.103-0.03-0.174-0.03c-0.223,0-0.51,0.156-0.51,0.756v1.883H73.57V70.654z"/>
		<path fill="#1A1A1A" d="M75.755,72.328c0.006,0.575,0.036,1.115,0.414,1.115c0.27,0,0.354-0.33,0.365-0.57h0.522
			c-0.007,0.546-0.288,1.062-0.9,1.062c-0.678,0-0.982-0.468-0.982-1.751c0-1.098,0.371-1.583,0.995-1.583
			c0.575,0,0.941,0.456,0.941,1.266v0.462H75.755z M76.559,71.884c0-0.384-0.096-0.791-0.408-0.791
			c-0.317,0-0.396,0.407-0.396,0.791H76.559z"/>
		<path fill="#1A1A1A" d="M79.121,70.654h0.552v0.486h0.013c0.138-0.336,0.342-0.54,0.642-0.54c0.312,0,0.468,0.204,0.575,0.534
			h0.012c0.084-0.234,0.265-0.534,0.696-0.534c0.407,0,0.647,0.294,0.647,0.702v2.578h-0.582V71.62c0-0.246-0.077-0.468-0.312-0.468
			c-0.27,0-0.384,0.258-0.384,0.576v2.152h-0.582V71.62c0-0.246-0.077-0.468-0.312-0.468c-0.27,0-0.384,0.258-0.384,0.576v2.152
			h-0.582V70.654z"/>
		<path fill="#1A1A1A" d="M84.082,73.881v-0.474H84.07c-0.168,0.378-0.372,0.527-0.672,0.527c-0.228,0-0.659-0.126-0.659-0.911
			c0-0.852,0.33-1.14,1.127-1.14h0.216V71.47c0-0.216-0.096-0.377-0.365-0.377c-0.234,0-0.342,0.126-0.372,0.407l-0.516-0.144
			c0.09-0.582,0.462-0.756,0.917-0.756c0.559,0,0.888,0.246,0.888,0.846v2.435H84.082z M83.633,73.443
			c0.18,0,0.449-0.21,0.449-0.689v-0.426h-0.149c-0.552,0-0.612,0.312-0.612,0.623C83.32,73.239,83.375,73.443,83.633,73.443z"/>
		<path fill="#1A1A1A" d="M87.04,70.654v3.425c0,0.552-0.33,0.983-0.983,0.983c-0.426,0-0.702-0.132-0.899-0.438l0.468-0.323
			c0.084,0.149,0.239,0.27,0.432,0.27c0.342,0,0.432-0.306,0.432-0.941v-0.275h-0.012c-0.108,0.371-0.282,0.581-0.6,0.581
			c-0.504,0-0.75-0.642-0.75-1.673c0-1.331,0.348-1.661,0.731-1.661c0.342,0,0.51,0.21,0.647,0.582h0.013v-0.528H87.04z
			 M86.11,71.122c-0.162,0-0.372,0.156-0.372,1.146s0.21,1.146,0.372,1.146c0.168,0,0.378-0.156,0.378-1.146
			S86.278,71.122,86.11,71.122z"/>
		<path fill="#1A1A1A" d="M87.677,70.654h0.552v0.438h0.013c0.144-0.36,0.354-0.492,0.642-0.492c0.317,0,0.6,0.294,0.6,0.714v2.566
			H88.9v-2.333c0-0.252-0.12-0.396-0.281-0.396c-0.234,0-0.36,0.222-0.36,0.456v2.272h-0.582V70.654z"/>
		<path fill="#1A1A1A" d="M91.306,73.881v-0.474h-0.012c-0.168,0.378-0.372,0.527-0.672,0.527c-0.228,0-0.659-0.126-0.659-0.911
			c0-0.852,0.33-1.14,1.127-1.14h0.216V71.47c0-0.216-0.096-0.377-0.365-0.377c-0.234,0-0.342,0.126-0.372,0.407l-0.516-0.144
			c0.09-0.582,0.462-0.756,0.917-0.756c0.558,0,0.888,0.246,0.888,0.846v2.435H91.306z M90.856,73.443
			c0.18,0,0.449-0.21,0.449-0.689v-0.426h-0.149c-0.552,0-0.612,0.312-0.612,0.623C90.544,73.239,90.599,73.443,90.856,73.443z"/>
		<path fill="#1A1A1A" d="M95.08,73.881v-0.474h-0.012c-0.168,0.378-0.372,0.527-0.672,0.527c-0.228,0-0.659-0.126-0.659-0.911
			c0-0.852,0.33-1.14,1.127-1.14h0.216V71.47c0-0.216-0.096-0.377-0.365-0.377c-0.234,0-0.342,0.126-0.372,0.407l-0.516-0.144
			c0.09-0.582,0.462-0.756,0.917-0.756c0.559,0,0.888,0.246,0.888,0.846v2.435H95.08z M94.631,73.443c0.18,0,0.449-0.21,0.449-0.689
			v-0.426h-0.149c-0.552,0-0.612,0.312-0.612,0.623C94.318,73.239,94.373,73.443,94.631,73.443z"/>
		<path fill="#1A1A1A" d="M96.227,69.467h0.582v3.526c0,0.252,0.102,0.39,0.378,0.39h0.06v0.552H97.03
			c-0.479,0-0.804-0.21-0.804-0.815V69.467z"/>
		<path fill="#1A1A1A" d="M97.847,69.539c0.21,0,0.378,0.168,0.378,0.372c0,0.21-0.168,0.378-0.378,0.378
			c-0.204,0-0.372-0.168-0.372-0.378C97.475,69.707,97.643,69.539,97.847,69.539z M97.559,70.654h0.582v3.227h-0.582V70.654z"/>
		<path fill="#1A1A1A" d="M100.036,73.347l-0.012,0.007c-0.108,0.371-0.282,0.581-0.6,0.581c-0.504,0-0.75-0.642-0.75-1.673
			c0-1.331,0.348-1.661,0.731-1.661c0.342,0,0.51,0.21,0.647,0.582h0.013v-0.528h0.521v4.372h-0.552V73.347z M99.658,73.413
			c0.168,0,0.378-0.156,0.378-1.146s-0.21-1.146-0.378-1.146c-0.162,0-0.372,0.156-0.372,1.146S99.496,73.413,99.658,73.413z"/>
		<path fill="#1A1A1A" d="M103.029,73.881h-0.552v-0.438h-0.012c-0.145,0.359-0.354,0.491-0.642,0.491
			c-0.318,0-0.601-0.294-0.601-0.713v-2.567h0.582v2.333c0,0.252,0.12,0.396,0.282,0.396c0.233,0,0.359-0.222,0.359-0.455v-2.273
			h0.582V73.881z"/>
		<path fill="#1A1A1A" d="M104.854,73.881v-0.474h-0.012c-0.168,0.378-0.372,0.527-0.672,0.527c-0.228,0-0.659-0.126-0.659-0.911
			c0-0.852,0.33-1.14,1.127-1.14h0.216V71.47c0-0.216-0.096-0.377-0.365-0.377c-0.234,0-0.342,0.126-0.372,0.407l-0.516-0.144
			c0.09-0.582,0.462-0.756,0.917-0.756c0.559,0,0.888,0.246,0.888,0.846v2.435H104.854z M104.404,73.443
			c0.18,0,0.449-0.21,0.449-0.689v-0.426h-0.149c-0.552,0-0.612,0.312-0.612,0.623C104.092,73.239,104.146,73.443,104.404,73.443z"
			/>
		<path fill="#1A1A1A" d="M106.402,73.197c0.198,0,0.359,0.162,0.359,0.359c0,0.198-0.161,0.36-0.359,0.36s-0.36-0.162-0.36-0.36
			C106.042,73.359,106.204,73.197,106.402,73.197z"/>
	</g>
	<g enable-background="new    ">
		<path fill="#1A1A1A" d="M17.188,78.92v0.521h-1.164V78.92H17.188z"/>
		<path fill="#1A1A1A" d="M21.369,79.789c0,0.906-0.444,1.182-1.043,1.182c-0.611,0-1.055-0.275-1.055-1.182v-3.322h0.611v3.316
			c0,0.276,0.066,0.636,0.444,0.636c0.366,0,0.432-0.359,0.432-0.636v-3.316h0.611V79.789z"/>
		<path fill="#1A1A1A" d="M23.032,78.177H22.72v1.9c0,0.162,0.09,0.252,0.24,0.252h0.072v0.521c-0.096,0.019-0.192,0.03-0.276,0.03
			c-0.372,0-0.618-0.174-0.618-0.582v-2.122h-0.312v-0.522h0.312v-0.803h0.582v0.803h0.312V78.177z"/>
		<path fill="#1A1A1A" d="M25.426,79.328c0.006,0.575,0.036,1.115,0.414,1.115c0.27,0,0.354-0.33,0.366-0.57h0.521
			c-0.006,0.546-0.288,1.062-0.899,1.062c-0.678,0-0.983-0.468-0.983-1.751c0-1.098,0.372-1.583,0.996-1.583
			c0.575,0,0.941,0.456,0.941,1.266v0.462H25.426z M26.229,78.884c0-0.384-0.096-0.791-0.408-0.791
			c-0.318,0-0.396,0.407-0.396,0.791H26.229z"/>
		<path fill="#1A1A1A" d="M27.353,77.654h0.552v0.438h0.012c0.144-0.36,0.354-0.492,0.642-0.492c0.318,0,0.6,0.294,0.6,0.714v2.566
			h-0.582v-2.333c0-0.252-0.12-0.396-0.282-0.396c-0.234,0-0.36,0.222-0.36,0.456v2.272h-0.582V77.654z"/>
		<path fill="#1A1A1A" d="M30.082,76.539c0.21,0,0.378,0.168,0.378,0.372c0,0.21-0.168,0.378-0.378,0.378
			c-0.204,0-0.372-0.168-0.372-0.378C29.71,76.707,29.878,76.539,30.082,76.539z M29.794,77.654h0.582v3.227h-0.582V77.654z"/>
		<path fill="#1A1A1A" d="M31.012,77.654h0.552v0.486h0.012c0.138-0.336,0.342-0.54,0.642-0.54c0.312,0,0.468,0.204,0.576,0.534
			h0.012c0.084-0.234,0.264-0.534,0.696-0.534c0.408,0,0.647,0.294,0.647,0.702v2.578h-0.582V78.62c0-0.246-0.078-0.468-0.312-0.468
			c-0.27,0-0.384,0.258-0.384,0.576v2.152H32.29V78.62c0-0.246-0.078-0.468-0.312-0.468c-0.27,0-0.384,0.258-0.384,0.576v2.152
			h-0.582V77.654z"/>
		<path fill="#1A1A1A" d="M37.414,80.881v-0.474h-0.012c-0.168,0.378-0.372,0.527-0.671,0.527c-0.228,0-0.66-0.126-0.66-0.911
			c0-0.852,0.33-1.14,1.127-1.14h0.216V78.47c0-0.216-0.096-0.377-0.366-0.377c-0.234,0-0.342,0.126-0.372,0.407l-0.516-0.144
			c0.09-0.582,0.461-0.756,0.917-0.756c0.558,0,0.887,0.246,0.887,0.846v2.435H37.414z M36.964,80.443c0.18,0,0.45-0.21,0.45-0.689
			v-0.426h-0.15c-0.552,0-0.612,0.312-0.612,0.623C36.652,80.239,36.706,80.443,36.964,80.443z"/>
		<path fill="#1A1A1A" d="M39.819,80.347l-0.012,0.007c-0.108,0.371-0.282,0.581-0.6,0.581c-0.503,0-0.75-0.642-0.75-1.673
			c0-1.331,0.348-1.661,0.731-1.661c0.306,0,0.48,0.162,0.618,0.558h0.012v-1.691h0.552v4.414h-0.552V80.347z M39.441,80.413
			c0.168,0,0.378-0.156,0.378-1.146s-0.21-1.146-0.378-1.146c-0.162,0-0.372,0.156-0.372,1.146S39.28,80.413,39.441,80.413z"/>
		<path fill="#1A1A1A" d="M42.448,77.654H43v0.486h0.012c0.138-0.336,0.342-0.54,0.642-0.54c0.312,0,0.468,0.204,0.576,0.534h0.012
			c0.084-0.234,0.264-0.534,0.696-0.534c0.408,0,0.647,0.294,0.647,0.702v2.578h-0.582V78.62c0-0.246-0.078-0.468-0.312-0.468
			c-0.27,0-0.384,0.258-0.384,0.576v2.152h-0.582V78.62c0-0.246-0.078-0.468-0.312-0.468c-0.27,0-0.384,0.258-0.384,0.576v2.152
			h-0.582V77.654z"/>
		<path fill="#1A1A1A" d="M46.51,76.539c0.21,0,0.378,0.168,0.378,0.372c0,0.21-0.168,0.378-0.378,0.378
			c-0.204,0-0.372-0.168-0.372-0.378C46.138,76.707,46.306,76.539,46.51,76.539z M46.222,77.654h0.582v3.227h-0.582V77.654z"/>
		<path fill="#1A1A1A" d="M47.44,77.654h0.552v0.438h0.012c0.144-0.36,0.354-0.492,0.642-0.492c0.318,0,0.6,0.294,0.6,0.714v2.566
			h-0.582v-2.333c0-0.252-0.12-0.396-0.282-0.396c-0.234,0-0.36,0.222-0.36,0.456v2.272H47.44V77.654z"/>
		<path fill="#1A1A1A" d="M50.169,76.539c0.21,0,0.378,0.168,0.378,0.372c0,0.21-0.168,0.378-0.378,0.378
			c-0.204,0-0.372-0.168-0.372-0.378C49.798,76.707,49.966,76.539,50.169,76.539z M49.882,77.654h0.582v3.227h-0.582V77.654z"/>
		<path fill="#1A1A1A" d="M51.1,77.654h0.552v0.486h0.012c0.138-0.336,0.342-0.54,0.642-0.54c0.312,0,0.468,0.204,0.576,0.534h0.012
			c0.084-0.234,0.264-0.534,0.696-0.534c0.408,0,0.647,0.294,0.647,0.702v2.578h-0.582V78.62c0-0.246-0.078-0.468-0.312-0.468
			c-0.27,0-0.384,0.258-0.384,0.576v2.152h-0.582V78.62c0-0.246-0.078-0.468-0.312-0.468c-0.27,0-0.384,0.258-0.384,0.576v2.152
			H51.1V77.654z"/>
		<path fill="#1A1A1A" d="M57.987,77.654l-0.66,3.227h-0.551l-0.66-3.227h0.611l0.342,2.111h0.012l0.324-2.111H57.987z"/>
		<path fill="#1A1A1A" d="M58.883,79.328c0.006,0.575,0.036,1.115,0.414,1.115c0.27,0,0.354-0.33,0.366-0.57h0.521
			c-0.006,0.546-0.288,1.062-0.899,1.062c-0.678,0-0.983-0.468-0.983-1.751c0-1.098,0.372-1.583,0.996-1.583
			c0.575,0,0.941,0.456,0.941,1.266v0.462H58.883z M59.687,78.884c0-0.384-0.096-0.791-0.408-0.791
			c-0.318,0-0.396,0.407-0.396,0.791H59.687z"/>
		<path fill="#1A1A1A" d="M60.809,77.654h0.553v0.438h0.012c0.144-0.36,0.354-0.492,0.641-0.492c0.318,0,0.601,0.294,0.601,0.714
			v2.566h-0.582v-2.333c0-0.252-0.12-0.396-0.282-0.396c-0.233,0-0.359,0.222-0.359,0.456v2.272h-0.582V77.654z"/>
		<path fill="#1A1A1A" d="M63.539,76.539c0.209,0,0.377,0.168,0.377,0.372c0,0.21-0.168,0.378-0.377,0.378
			c-0.204,0-0.372-0.168-0.372-0.378C63.167,76.707,63.335,76.539,63.539,76.539z M63.251,77.654h0.581v3.227h-0.581V77.654z"/>
		<path fill="#1A1A1A" d="M65.656,80.881v-0.474h-0.012c-0.168,0.378-0.371,0.527-0.672,0.527c-0.228,0-0.659-0.126-0.659-0.911
			c0-0.852,0.329-1.14,1.127-1.14h0.216V78.47c0-0.216-0.096-0.377-0.365-0.377c-0.234,0-0.342,0.126-0.372,0.407l-0.516-0.144
			c0.09-0.582,0.462-0.756,0.917-0.756c0.559,0,0.888,0.246,0.888,0.846v2.435H65.656z M65.207,80.443
			c0.18,0,0.449-0.21,0.449-0.689v-0.426h-0.149c-0.552,0-0.612,0.312-0.612,0.623C64.895,80.239,64.949,80.443,65.207,80.443z"/>
		<path fill="#1A1A1A" d="M66.803,77.654h0.553v0.486h0.012c0.138-0.336,0.342-0.54,0.641-0.54c0.312,0,0.469,0.204,0.576,0.534
			h0.012c0.084-0.234,0.264-0.534,0.696-0.534c0.407,0,0.647,0.294,0.647,0.702v2.578h-0.582V78.62c0-0.246-0.078-0.468-0.312-0.468
			c-0.271,0-0.384,0.258-0.384,0.576v2.152H68.08V78.62c0-0.246-0.078-0.468-0.312-0.468c-0.27,0-0.384,0.258-0.384,0.576v2.152
			h-0.582V77.654z"/>
		<path fill="#1A1A1A" d="M71.363,80.119l-0.528,1.277h-0.491l0.377-1.277H71.363z"/>
		<path fill="#1A1A1A" d="M74.495,80.347l-0.013,0.007c-0.107,0.371-0.281,0.581-0.6,0.581c-0.503,0-0.749-0.642-0.749-1.673
			c0-1.331,0.348-1.661,0.731-1.661c0.342,0,0.51,0.21,0.648,0.582h0.012v-0.528h0.521v4.372h-0.552V80.347z M74.117,80.413
			c0.168,0,0.378-0.156,0.378-1.146s-0.21-1.146-0.378-1.146c-0.162,0-0.371,0.156-0.371,1.146S73.955,80.413,74.117,80.413z"/>
		<path fill="#1A1A1A" d="M77.488,80.881h-0.552v-0.438h-0.012c-0.144,0.359-0.354,0.491-0.642,0.491c-0.317,0-0.6-0.294-0.6-0.713
			v-2.567h0.582v2.333c0,0.252,0.119,0.396,0.281,0.396c0.234,0,0.36-0.222,0.36-0.455v-2.273h0.581V80.881z"/>
		<path fill="#1A1A1A" d="M78.413,76.539c0.21,0,0.378,0.168,0.378,0.372c0,0.21-0.168,0.378-0.378,0.378
			c-0.204,0-0.372-0.168-0.372-0.378C78.041,76.707,78.209,76.539,78.413,76.539z M78.125,77.654h0.582v3.227h-0.582V77.654z"/>
		<path fill="#1A1A1A" d="M79.679,79.993c0.006,0.229,0.15,0.45,0.396,0.45c0.216,0,0.329-0.168,0.329-0.324
			s-0.084-0.323-0.359-0.54l-0.306-0.239c-0.396-0.312-0.528-0.546-0.528-0.888c0-0.527,0.372-0.852,0.857-0.852
			c0.498,0,0.744,0.276,0.882,0.63l-0.498,0.3c-0.012-0.228-0.138-0.438-0.39-0.438c-0.186,0-0.3,0.119-0.3,0.294
			c0,0.138,0.061,0.251,0.36,0.479l0.365,0.281c0.378,0.294,0.498,0.588,0.498,0.906c0,0.474-0.33,0.881-0.924,0.881
			c-0.426,0-0.707-0.18-0.887-0.623L79.679,79.993z"/>
		<path fill="#1A1A1A" d="M82.895,77.654h0.552v0.438h0.013c0.144-0.36,0.354-0.492,0.642-0.492c0.317,0,0.6,0.294,0.6,0.714v2.566
			h-0.582v-2.333c0-0.252-0.12-0.396-0.281-0.396c-0.234,0-0.36,0.222-0.36,0.456v2.272h-0.582V77.654z"/>
		<path fill="#1A1A1A" d="M85.235,79.268c0-0.923,0.246-1.667,1.008-1.667s1.007,0.744,1.007,1.667c0,0.924-0.245,1.667-1.007,1.667
			S85.235,80.191,85.235,79.268z M86.639,79.112c0-0.588-0.09-1.02-0.396-1.02s-0.396,0.432-0.396,1.02
			c0,0.881,0.126,1.331,0.396,1.331C86.513,80.443,86.639,79.993,86.639,79.112z"/>
		<path fill="#1A1A1A" d="M88.121,79.993c0.006,0.229,0.15,0.45,0.396,0.45c0.216,0,0.329-0.168,0.329-0.324
			s-0.084-0.323-0.359-0.54l-0.306-0.239c-0.396-0.312-0.528-0.546-0.528-0.888c0-0.527,0.372-0.852,0.857-0.852
			c0.498,0,0.744,0.276,0.882,0.63l-0.498,0.3c-0.012-0.228-0.138-0.438-0.39-0.438c-0.186,0-0.3,0.119-0.3,0.294
			c0,0.138,0.061,0.251,0.36,0.479l0.365,0.281c0.378,0.294,0.498,0.588,0.498,0.906c0,0.474-0.33,0.881-0.924,0.881
			c-0.426,0-0.707-0.18-0.887-0.623L88.121,79.993z"/>
		<path fill="#1A1A1A" d="M90.904,78.177h-0.312v1.9c0,0.162,0.09,0.252,0.239,0.252h0.072v0.521
			c-0.096,0.019-0.191,0.03-0.275,0.03c-0.372,0-0.618-0.174-0.618-0.582v-2.122h-0.312v-0.522h0.312v-0.803h0.582v0.803h0.312
			V78.177z"/>
		<path fill="#1A1A1A" d="M91.343,77.654h0.552v0.588h0.013c0.06-0.294,0.258-0.611,0.695-0.642h0.006v0.672
			c-0.048-0.019-0.102-0.03-0.174-0.03c-0.222,0-0.51,0.156-0.51,0.756v1.883h-0.582V77.654z"/>
		<path fill="#1A1A1A" d="M94.866,80.881h-0.552v-0.438h-0.012c-0.145,0.359-0.354,0.491-0.642,0.491
			c-0.318,0-0.601-0.294-0.601-0.713v-2.567h0.582v2.333c0,0.252,0.12,0.396,0.282,0.396c0.233,0,0.359-0.222,0.359-0.455v-2.273
			h0.582V80.881z"/>
		<path fill="#1A1A1A" d="M96.762,80.347l-0.012,0.007c-0.108,0.371-0.282,0.581-0.6,0.581c-0.504,0-0.75-0.642-0.75-1.673
			c0-1.331,0.348-1.661,0.731-1.661c0.306,0,0.479,0.162,0.618,0.558h0.012v-1.691h0.552v4.414h-0.552V80.347z M96.384,80.413
			c0.168,0,0.378-0.156,0.378-1.146s-0.21-1.146-0.378-1.146c-0.162,0-0.372,0.156-0.372,1.146S96.222,80.413,96.384,80.413z"/>
	</g>
	<g enable-background="new    ">
		<path fill="#1A1A1A" d="M17.188,85.92v0.521h-1.164V85.92H17.188z"/>
		<path fill="#1A1A1A" d="M19.768,86.328c0.006,0.575,0.036,1.115,0.414,1.115c0.27,0,0.354-0.33,0.366-0.57h0.521
			c-0.006,0.546-0.288,1.062-0.899,1.062c-0.678,0-0.983-0.468-0.983-1.751c0-1.098,0.372-1.583,0.995-1.583
			c0.576,0,0.942,0.456,0.942,1.266v0.462H19.768z M20.572,85.884c0-0.384-0.096-0.791-0.408-0.791
			c-0.318,0-0.396,0.407-0.396,0.791H20.572z"/>
		<path fill="#1A1A1A" d="M22.138,84.654l0.306,1.038h0.012l0.293-1.038h0.552l-0.594,1.535l0.642,1.691h-0.582l-0.348-1.176h-0.012
			l-0.312,1.176h-0.582l0.642-1.686l-0.63-1.541H22.138z"/>
		<path fill="#1A1A1A" d="M24.215,86.328c0.006,0.575,0.036,1.115,0.414,1.115c0.27,0,0.354-0.33,0.366-0.57h0.521
			c-0.006,0.546-0.288,1.062-0.899,1.062c-0.678,0-0.983-0.468-0.983-1.751c0-1.098,0.372-1.583,0.995-1.583
			c0.576,0,0.942,0.456,0.942,1.266v0.462H24.215z M25.019,85.884c0-0.384-0.096-0.791-0.408-0.791
			c-0.318,0-0.396,0.407-0.396,0.791H25.019z"/>
		<path fill="#1A1A1A" d="M26.142,84.654h0.552v0.588h0.012c0.06-0.294,0.258-0.611,0.696-0.642h0.006v0.672
			c-0.048-0.019-0.102-0.03-0.174-0.03c-0.222,0-0.51,0.156-0.51,0.756v1.883h-0.582V84.654z"/>
		<path fill="#1A1A1A" d="M28.884,85.596c-0.006-0.312-0.072-0.474-0.264-0.474s-0.33,0.15-0.33,1.151c0,0.738,0.09,1.14,0.336,1.14
			c0.192,0,0.276-0.149,0.318-0.552l0.522,0.18c-0.084,0.588-0.33,0.894-0.84,0.894c-0.624,0-0.917-0.497-0.917-1.613
			c0-1.199,0.288-1.721,0.941-1.721c0.558,0,0.774,0.468,0.786,0.876L28.884,85.596z"/>
		<path fill="#1A1A1A" d="M30.21,83.539c0.21,0,0.378,0.168,0.378,0.372c0,0.21-0.168,0.378-0.378,0.378
			c-0.204,0-0.372-0.168-0.372-0.378C29.838,83.707,30.006,83.539,30.21,83.539z M29.922,84.654h0.582v3.227h-0.582V84.654z"/>
		<path fill="#1A1A1A" d="M32.147,85.177h-0.312v1.9c0,0.162,0.09,0.252,0.24,0.252h0.072v0.521c-0.096,0.019-0.192,0.03-0.276,0.03
			c-0.372,0-0.618-0.174-0.618-0.582v-2.122h-0.312v-0.522h0.312v-0.803h0.582v0.803h0.312V85.177z"/>
		<path fill="#1A1A1A" d="M33.774,87.881v-0.474h-0.012c-0.168,0.378-0.372,0.527-0.671,0.527c-0.228,0-0.66-0.126-0.66-0.911
			c0-0.852,0.33-1.14,1.127-1.14h0.216V85.47c0-0.216-0.096-0.377-0.366-0.377c-0.234,0-0.342,0.126-0.372,0.407l-0.516-0.144
			c0.09-0.582,0.461-0.756,0.917-0.756c0.558,0,0.887,0.246,0.887,0.846v2.435H33.774z M33.324,87.443c0.18,0,0.45-0.21,0.45-0.689
			v-0.426h-0.15c-0.552,0-0.612,0.312-0.612,0.623C33.012,87.239,33.066,87.443,33.324,87.443z"/>
		<path fill="#1A1A1A" d="M35.928,85.177h-0.312v1.9c0,0.162,0.09,0.252,0.24,0.252h0.072v0.521c-0.096,0.019-0.192,0.03-0.276,0.03
			c-0.372,0-0.618-0.174-0.618-0.582v-2.122h-0.312v-0.522h0.312v-0.803h0.582v0.803h0.312V85.177z"/>
		<path fill="#1A1A1A" d="M36.654,83.539c0.21,0,0.378,0.168,0.378,0.372c0,0.21-0.168,0.378-0.378,0.378
			c-0.204,0-0.372-0.168-0.372-0.378C36.282,83.707,36.45,83.539,36.654,83.539z M36.366,84.654h0.582v3.227h-0.582V84.654z"/>
		<path fill="#1A1A1A" d="M37.482,86.268c0-0.923,0.246-1.667,1.007-1.667c0.762,0,1.008,0.744,1.008,1.667
			c0,0.924-0.246,1.667-1.008,1.667C37.728,87.935,37.482,87.191,37.482,86.268z M38.885,86.112c0-0.588-0.09-1.02-0.396-1.02
			c-0.306,0-0.396,0.432-0.396,1.02c0,0.881,0.126,1.331,0.396,1.331C38.759,87.443,38.885,86.993,38.885,86.112z"/>
		<path fill="#1A1A1A" d="M40.032,84.654h0.552v0.438h0.012c0.144-0.36,0.354-0.492,0.642-0.492c0.318,0,0.6,0.294,0.6,0.714v2.566
			h-0.582v-2.333c0-0.252-0.12-0.396-0.282-0.396c-0.234,0-0.36,0.222-0.36,0.456v2.272h-0.582V84.654z"/>
		<path fill="#1A1A1A" d="M45.719,87.881h-0.552v-0.438h-0.012c-0.144,0.359-0.354,0.491-0.642,0.491c-0.318,0-0.6-0.294-0.6-0.713
			v-2.567h0.582v2.333c0,0.252,0.12,0.396,0.282,0.396c0.234,0,0.36-0.222,0.36-0.455v-2.273h0.582V87.881z"/>
		<path fill="#1A1A1A" d="M46.356,83.467h0.582v3.526c0,0.252,0.102,0.39,0.378,0.39h0.06v0.552H47.16
			c-0.48,0-0.804-0.21-0.804-0.815V83.467z"/>
		<path fill="#1A1A1A" d="M47.688,83.467h0.582v3.526c0,0.252,0.102,0.39,0.378,0.39h0.06v0.552h-0.216
			c-0.48,0-0.804-0.21-0.804-0.815V83.467z"/>
		<path fill="#1A1A1A" d="M50.208,87.881v-0.474h-0.012c-0.168,0.378-0.372,0.527-0.671,0.527c-0.228,0-0.66-0.126-0.66-0.911
			c0-0.852,0.33-1.14,1.127-1.14h0.216V85.47c0-0.216-0.096-0.377-0.366-0.377c-0.234,0-0.342,0.126-0.372,0.407l-0.516-0.144
			c0.09-0.582,0.461-0.756,0.917-0.756c0.558,0,0.887,0.246,0.887,0.846v2.435H50.208z M49.758,87.443c0.18,0,0.45-0.21,0.45-0.689
			v-0.426h-0.15c-0.552,0-0.612,0.312-0.612,0.623C49.446,87.239,49.5,87.443,49.758,87.443z"/>
		<path fill="#1A1A1A" d="M51.354,84.654h0.552v0.486h0.012c0.138-0.336,0.342-0.54,0.642-0.54c0.312,0,0.468,0.204,0.576,0.534
			h0.012c0.084-0.234,0.264-0.534,0.696-0.534c0.408,0,0.647,0.294,0.647,0.702v2.578h-0.582V85.62c0-0.246-0.078-0.468-0.312-0.468
			c-0.27,0-0.384,0.258-0.384,0.576v2.152h-0.582V85.62c0-0.246-0.078-0.468-0.312-0.468c-0.27,0-0.384,0.258-0.384,0.576v2.152
			h-0.582V84.654z"/>
		<path fill="#1A1A1A" d="M56.201,85.596c-0.006-0.312-0.072-0.474-0.264-0.474s-0.33,0.15-0.33,1.151c0,0.738,0.09,1.14,0.336,1.14
			c0.192,0,0.276-0.149,0.318-0.552l0.522,0.18c-0.084,0.588-0.33,0.894-0.84,0.894c-0.624,0-0.917-0.497-0.917-1.613
			c0-1.199,0.288-1.721,0.941-1.721c0.558,0,0.774,0.468,0.786,0.876L56.201,85.596z"/>
		<path fill="#1A1A1A" d="M57.138,86.268c0-0.923,0.246-1.667,1.007-1.667c0.762,0,1.008,0.744,1.008,1.667
			c0,0.924-0.246,1.667-1.008,1.667C57.384,87.935,57.138,87.191,57.138,86.268z M58.541,86.112c0-0.588-0.09-1.02-0.396-1.02
			c-0.306,0-0.396,0.432-0.396,1.02c0,0.881,0.126,1.331,0.396,1.331C58.415,87.443,58.541,86.993,58.541,86.112z"/>
	</g>
</g>
</svg>
